{
  "project_info": {
    "project_number": "970206132432",
    "firebase_url": "https://memotravel-4d997.firebaseio.com",
    "project_id": "memotravel-4d997",
    "storage_bucket": "memotravel-4d997.appspot.com"
  },
  "client": [
    {
      "client_info": {
        "mobilesdk_app_id": "1:970206132432:android:edfb39779a495acb",
        "android_client_info": {
          "package_name": "com.ubb.vasi.ro.memotravel"
        }
      },
      "oauth_client": [
        {
          "client_id": "970206132432-damk63ldalforl07j1nsrjtag375k31d.apps.googleusercontent.com",
          "client_type": 1,
          "android_info": {
            "package_name": "com.ubb.vasi.ro.memotravel",
            "certificate_hash": "EAEC2A11DF00B6A18C6097B4054EB85F303FCC62"
          }
        },
        {
          "client_id": "970206132432-pdq3mdk0rbcj3gj4dut420bj4ucjslcp.apps.googleusercontent.com",
          "client_type": 3
        }
      ],
      "api_key": [
		{
	  		"current_key": "AIzaSyC2YLXbnmyo9OyC05bgDrLCXC4OnXcEQjM"
		}
	  ],
      "services": {
        "analytics_service": {
          "status": 1
        },
        "appinvite_service": {
          "status": 2,
          "other_platform_oauth_client": [
            {
              "client_id": "970206132432-pdq3mdk0rbcj3gj4dut420bj4ucjslcp.apps.googleusercontent.com",
              "client_type": 3
            }
          ]
        },
        "ads_service": {
          "status": 2
        }
      }
    }
  ],
  "configuration_version": "1"
}